Cyclistic 2021 Capstone Project
…
Here we see that only 1470 trips less than 1 minute, had different start & end stations when excluding missing stations, members were responsible for 95% of these trips and classic bikes were the most used, also observing that no docked bikes travelled less than a minute between different stations.

Since this is a very small portion of our data we can assume that for majority of these trips, the stations are not far apart and Classic bikes are the most popular bikes for very short trips.

Average distance between stations for trips less than 1 min & different stations

low_trips_2 %>%
  group_by(start_station_name, end_station_name) %>%
  summarise(mean_dist = mean(distance_km)) %>% 
  arrange(desc(mean_dist))

## # A tibble: 140 x 3
## # Groups:   start_station_name [97]
##    start_station_name              end_station_name                 mean_dist
##    <chr>                           <chr>                                <dbl>
##  1 Lincoln Ave & Waveland Ave      Lincoln Ave & Roscoe St              0.704
##  2 Clifton Ave & Armitage Ave      W Armitage Ave & N Sheffield Ave     0.615
##  3 Sheffield Ave & Fullerton Ave   Halsted St & Wrightwood Ave          0.550
##  4 N Carpenter St & W Lake St      Morgan St & Lake St                  0.544
##  5 N Southport Ave & W Newport Ave Southport Ave & Roscoe St            0.542
##  6 Morgan St & Lake St             N Carpenter St & W Lake St           0.542
##  7 Southport Ave & Roscoe St       N Southport Ave & W Newport Ave      0.531
##  8 Lincoln Ave & Roscoe St         N Paulina St & Lincoln Ave           0.384
##  9 Racine Ave & Fullerton Ave      Racine Ave & Wrightwood Ave          0.373
## 10 Ravenswood Ave & Berteau Ave    Ravenswood Ave & Irving Park Rd      0.365
## # ... with 130 more rows
…
